<svg width="116" height="116" viewBox="0 0 116 116" fill="none" xmlns="http://www.w3.org/2000/svg">
<g clip-path="url(#clip0)">
<path d="M54.9999 1.46165L0.079834 45.8389V54.1091H58.0003H115.921V45.8389L61.0007 1.46165C59.2505 0.0474502 56.7501 0.0474502 54.9999 1.46165Z" fill="#BB843B"/>
<path d="M106.373 99.9752H9.62694C6.99066 99.9752 4.85327 97.8378 4.85327 95.2016V4.77367C4.85327 2.13739 6.99044 0 9.62694 0H106.373C109.01 0 111.147 2.13739 111.147 4.77367V95.2018C111.147 97.8383 109.01 99.9752 106.373 99.9752Z" fill="url(#paint0_linear)"/>
<path d="M111.147 92.5424V94.4006C111.147 97.478 108.649 99.9754 105.572 99.9754H10.4281C7.35067 99.9754 4.85327 97.4778 4.85327 94.4006V92.5424H111.147Z" fill="url(#paint1_linear)"/>
<path d="M88.7111 15.1162H27.2891V18.6171H88.7111V15.1162Z" fill="#C2CECE"/>
<path d="M88.7111 29.1184H27.2891V32.6193H88.7111V29.1184Z" fill="#C2CECE"/>
<path d="M88.7111 43.4395H27.2891V46.9403H88.7111V43.4395Z" fill="#C2CECE"/>
<path d="M88.7111 57.7607H27.2891V61.2616H88.7111V57.7607Z" fill="#C2CECE"/>
<path d="M96.3483 47.2594C91.5864 47.2594 87.223 45.5573 83.8298 42.7305L82.5046 42.9631L111.147 71.6052V40.4884C107.558 44.6334 102.261 47.2594 96.3483 47.2594Z" fill="url(#paint2_linear)"/>
<path d="M115.921 45.9449V111.226C115.921 113.862 113.782 116 111.147 116H4.85351C2.21836 116 0.079834 113.862 0.079834 111.226V45.9449L58.637 92.132L115.921 45.9449Z" fill="url(#paint3_linear)"/>
<path d="M115.277 113.613L61.6328 70.361C59.8842 68.9511 57.3889 68.9511 55.6402 70.361L1.17847 114.272C2.05436 115.328 3.37499 116 4.85331 116H111.147C112.913 116 114.451 115.039 115.277 113.613Z" fill="url(#paint4_linear)"/>
<path d="M96.3477 48.85C107.157 48.85 115.92 40.0873 115.92 29.278C115.92 18.4686 107.157 9.70593 96.3477 9.70593C85.5383 9.70593 76.7756 18.4686 76.7756 29.278C76.7756 40.0873 85.5383 48.85 96.3477 48.85Z" fill="url(#paint5_linear)"/>
<path d="M91.9348 21.4391C91.9348 20.8042 92.1913 20.3035 92.704 19.9372L96.5139 16.2739C96.7823 16.0054 97.112 15.8708 97.503 15.8708C97.9426 15.8708 98.3393 15.9871 98.6934 16.2188C99.0473 16.4511 99.2247 16.7626 99.2247 17.153V41.4035C99.2247 41.7946 99.0289 42.1059 98.6386 42.3379C98.2475 42.5701 97.7962 42.6859 97.2833 42.6859C96.7459 42.6859 96.2878 42.5701 95.9096 42.3379C95.5306 42.1061 95.3416 41.7946 95.3416 41.4035V21.0358L94.0595 22.6478C93.8153 22.892 93.5468 23.0141 93.2536 23.0141C92.8873 23.0141 92.576 22.8494 92.3193 22.5198C92.063 22.1899 91.9348 21.8299 91.9348 21.4391Z" fill="white"/>
<path d="M6.34156 96.6901V6.26174C6.34156 3.62545 8.47895 1.48806 11.1152 1.48806H107.862C108.798 1.48806 109.669 1.76198 110.407 2.22824C109.561 0.890844 108.073 0 106.373 0H9.62694C6.99066 0 4.85327 2.13739 4.85327 4.77367V95.2018C4.85327 96.9015 5.74412 98.3895 7.08174 99.2355C6.61547 98.4981 6.34156 97.6269 6.34156 96.6901Z" fill="url(#paint6_linear)"/>
</g>
<defs>
<linearGradient id="paint0_linear" x1="15.5903" y1="7.57299" x2="126.908" y2="118.893" gradientUnits="userSpaceOnUse">
<stop stop-color="white"/>
<stop offset="1" stop-color="#E8EFEE"/>
</linearGradient>
<linearGradient id="paint1_linear" x1="112.075" y1="91.6895" x2="-0.228404" y2="100.73" gradientUnits="userSpaceOnUse">
<stop stop-color="#C2CECE" stop-opacity="0"/>
<stop offset="0.179" stop-color="#AFBCBC" stop-opacity="0.179"/>
<stop offset="1" stop-color="#5B6A6A"/>
</linearGradient>
<linearGradient id="paint2_linear" x1="112.303" y1="57.198" x2="86.2003" y2="31.0947" gradientUnits="userSpaceOnUse">
<stop stop-color="#C2CECE" stop-opacity="0"/>
<stop offset="0.179" stop-color="#AFBCBC" stop-opacity="0.179"/>
<stop offset="1" stop-color="#5B6A6A"/>
</linearGradient>
<linearGradient id="paint3_linear" x1="58.0021" y1="68.2232" x2="58.0021" y2="111.219" gradientUnits="userSpaceOnUse">
<stop stop-color="#F4C380"/>
<stop offset="1" stop-color="#BB843B"/>
</linearGradient>
<linearGradient id="paint4_linear" x1="58.2294" y1="84.1535" x2="58.2294" y2="112.813" gradientUnits="userSpaceOnUse">
<stop stop-color="#F4C380"/>
<stop offset="1" stop-color="#BB843B"/>
</linearGradient>
<linearGradient id="paint5_linear" x1="96.3477" y1="9.70593" x2="96.3477" y2="48.85" gradientUnits="userSpaceOnUse">
<stop stop-color="#388AEA"/>
<stop offset="1" stop-color="#0572A9"/>
</linearGradient>
<linearGradient id="paint6_linear" x1="31.0178" y1="23.0022" x2="-50.4506" y2="-58.4638" gradientUnits="userSpaceOnUse">
<stop stop-color="#C2CECE" stop-opacity="0"/>
<stop offset="0.179" stop-color="#AFBCBC" stop-opacity="0.179"/>
<stop offset="1" stop-color="#5B6A6A"/>
</linearGradient>
<clipPath id="clip0">
<rect width="116" height="116" fill="white"/>
</clipPath>
</defs>
</svg>
